<?xml version="1.0" encoding="UTF-8" standalone="no"?>
<!-- Created with Inkscape (http://www.inkscape.org/) -->

<svg
   xmlns:dc="http://purl.org/dc/elements/1.1/"
   xmlns:cc="http://creativecommons.org/ns#"
   xmlns:rdf="http://www.w3.org/1999/02/22-rdf-syntax-ns#"
   xmlns:svg="http://www.w3.org/2000/svg"
   xmlns="http://www.w3.org/2000/svg"
   xmlns:xlink="http://www.w3.org/1999/xlink"
   xmlns:sodipodi="http://sodipodi.sourceforge.net/DTD/sodipodi-0.dtd"
   xmlns:inkscape="http://www.inkscape.org/namespaces/inkscape"
   width="204"
   height="24"
   id="svg2"
   version="1.1"
   inkscape:version="0.47 r22583"
   inkscape:export-filename="C:\Sudhir\d7\sites\all\modules\userbar\images\images.png"
   inkscape:export-xdpi="90"
   inkscape:export-ydpi="90"
   sodipodi:docname="userbar_sprite.svg">
  <defs
     id="defs4">
    <inkscape:perspective
       sodipodi:type="inkscape:persp3d"
       inkscape:vp_x="0 : 526.18109 : 1"
       inkscape:vp_y="0 : 1000 : 0"
       inkscape:vp_z="744.09448 : 526.18109 : 1"
       inkscape:persp3d-origin="372.04724 : 350.78739 : 1"
       id="perspective10" />
    <inkscape:perspective
       id="perspective2836"
       inkscape:persp3d-origin="960 : 360 : 1"
       inkscape:vp_z="1920 : 540 : 1"
       inkscape:vp_y="0 : 1000 : 0"
       inkscape:vp_x="0 : 540 : 1"
       sodipodi:type="inkscape:persp3d" />
    <inkscape:perspective
       id="perspective2904"
       inkscape:persp3d-origin="960 : 360 : 1"
       inkscape:vp_z="1920 : 540 : 1"
       inkscape:vp_y="0 : 1000 : 0"
       inkscape:vp_x="0 : 540 : 1"
       sodipodi:type="inkscape:persp3d" />
    <inkscape:perspective
       id="perspective2928"
       inkscape:persp3d-origin="960 : 360 : 1"
       inkscape:vp_z="1920 : 540 : 1"
       inkscape:vp_y="0 : 1000 : 0"
       inkscape:vp_x="0 : 540 : 1"
       sodipodi:type="inkscape:persp3d" />
    <inkscape:perspective
       id="perspective2952"
       inkscape:persp3d-origin="960 : 360 : 1"
       inkscape:vp_z="1920 : 540 : 1"
       inkscape:vp_y="0 : 1000 : 0"
       inkscape:vp_x="0 : 540 : 1"
       sodipodi:type="inkscape:persp3d" />
    <inkscape:perspective
       id="perspective2976"
       inkscape:persp3d-origin="960 : 360 : 1"
       inkscape:vp_z="1920 : 540 : 1"
       inkscape:vp_y="0 : 1000 : 0"
       inkscape:vp_x="0 : 540 : 1"
       sodipodi:type="inkscape:persp3d" />
    <inkscape:perspective
       id="perspective3000"
       inkscape:persp3d-origin="960 : 360 : 1"
       inkscape:vp_z="1920 : 540 : 1"
       inkscape:vp_y="0 : 1000 : 0"
       inkscape:vp_x="0 : 540 : 1"
       sodipodi:type="inkscape:persp3d" />
    <inkscape:perspective
       id="perspective3014"
       inkscape:persp3d-origin="0.5 : 0.33333333 : 1"
       inkscape:vp_z="1 : 0.5 : 1"
       inkscape:vp_y="0 : 1000 : 0"
       inkscape:vp_x="0 : 0.5 : 1"
       sodipodi:type="inkscape:persp3d" />
    <inkscape:perspective
       id="perspective3028"
       inkscape:persp3d-origin="0.5 : 0.33333333 : 1"
       inkscape:vp_z="1 : 0.5 : 1"
       inkscape:vp_y="0 : 1000 : 0"
       inkscape:vp_x="0 : 0.5 : 1"
       sodipodi:type="inkscape:persp3d" />
    <inkscape:perspective
       id="perspective3042"
       inkscape:persp3d-origin="0.5 : 0.33333333 : 1"
       inkscape:vp_z="1 : 0.5 : 1"
       inkscape:vp_y="0 : 1000 : 0"
       inkscape:vp_x="0 : 0.5 : 1"
       sodipodi:type="inkscape:persp3d" />
    <inkscape:perspective
       id="perspective3056"
       inkscape:persp3d-origin="0.5 : 0.33333333 : 1"
       inkscape:vp_z="1 : 0.5 : 1"
       inkscape:vp_y="0 : 1000 : 0"
       inkscape:vp_x="0 : 0.5 : 1"
       sodipodi:type="inkscape:persp3d" />
    <inkscape:perspective
       id="perspective3070"
       inkscape:persp3d-origin="0.5 : 0.33333333 : 1"
       inkscape:vp_z="1 : 0.5 : 1"
       inkscape:vp_y="0 : 1000 : 0"
       inkscape:vp_x="0 : 0.5 : 1"
       sodipodi:type="inkscape:persp3d" />
    <inkscape:perspective
       id="perspective3084"
       inkscape:persp3d-origin="0.5 : 0.33333333 : 1"
       inkscape:vp_z="1 : 0.5 : 1"
       inkscape:vp_y="0 : 1000 : 0"
       inkscape:vp_x="0 : 0.5 : 1"
       sodipodi:type="inkscape:persp3d" />
    <inkscape:perspective
       id="perspective2839"
       inkscape:persp3d-origin="0.5 : 0.33333333 : 1"
       inkscape:vp_z="1 : 0.5 : 1"
       inkscape:vp_y="0 : 1000 : 0"
       inkscape:vp_x="0 : 0.5 : 1"
       sodipodi:type="inkscape:persp3d" />
    <inkscape:perspective
       id="perspective2853"
       inkscape:persp3d-origin="0.5 : 0.33333333 : 1"
       inkscape:vp_z="1 : 0.5 : 1"
       inkscape:vp_y="0 : 1000 : 0"
       inkscape:vp_x="0 : 0.5 : 1"
       sodipodi:type="inkscape:persp3d" />
  </defs>
  <sodipodi:namedview
     id="base"
     pagecolor="#ffffff"
     bordercolor="#666666"
     borderopacity="1.0"
     inkscape:pageopacity="0.0"
     inkscape:pageshadow="2"
     inkscape:zoom="1.35"
     inkscape:cx="292.70421"
     inkscape:cy="101.75754"
     inkscape:document-units="px"
     inkscape:current-layer="layer1"
     showgrid="false"
     showguides="true"
     inkscape:guide-bbox="true"
     inkscape:window-width="1366"
     inkscape:window-height="716"
     inkscape:window-x="-8"
     inkscape:window-y="-8"
     inkscape:window-maximized="1">
    <sodipodi:guide
       orientation="1,0"
       position="-92.444436,81.393852"
       id="guide3004" />
  </sodipodi:namedview>
  <metadata
     id="metadata7">
    <rdf:RDF>
      <cc:Work
         rdf:about="">
        <dc:format>image/svg+xml</dc:format>
        <dc:type
           rdf:resource="http://purl.org/dc/dcmitype/StillImage" />
        <dc:title />
      </cc:Work>
    </rdf:RDF>
  </metadata>
  <g
     inkscape:label="Layer 1"
     inkscape:groupmode="layer"
     id="layer1"
     transform="translate(6.2227306,-1020.4161)">
    <image
       y="1020.4161"
       x="-6.2227306"
       id="image3016"
       height="24"
       width="24"
       xlink:href="file:///C:/Sudhir/d7/sites/all/modules/userbar/images/png/userbar_commerce.png" />
    <image
       y="1020.4161"
       x="71.777267"
       id="image3030"
       height="24"
       width="24"
       xlink:href="file:///C:/Sudhir/d7/sites/all/modules/userbar/images/png/userbar_flag.png" />
    <image
       y="1020.4161"
       x="45.777271"
       id="image3044"
       height="24"
       width="24"
       xlink:href="file:///C:/Sudhir/d7/sites/all/modules/userbar/images/png/userbar_logout.png" />
    <image
       y="1020.4161"
       x="95.777267"
       id="image3058"
       height="24"
       width="24"
       xlink:href="file:///C:/Sudhir/d7/sites/all/modules/userbar/images/png/userbar_privatemsg.png" />
    <image
       y="1020.4161"
       x="19.777269"
       id="image3072"
       height="24"
       width="24"
       xlink:href="file:///C:/Sudhir/d7/sites/all/modules/userbar/images/png/userbar_profile.png" />
    <image
       y="1020.4161"
       x="121.77727"
       id="image3086"
       height="24"
       width="24"
       xlink:href="file:///C:/Sudhir/d7/sites/all/modules/userbar/images/png/userbar_workbench.png" />
    <image
       y="1020.4161"
       x="173.77727"
       id="image2841"
       height="24"
       width="24"
       xlink:href="file:///C:/Sudhir/d7/sites/all/modules/userbar/images/png/userbar_calendar.png" />
    <image
       y="1020.4161"
       x="147.77727"
       id="image2855"
       height="24"
       width="24"
       xlink:href="file:///C:/Sudhir/d7/sites/all/modules/userbar/images/png/userbar_default.png" />
  </g>
</svg>
