<?xml version="1.0" encoding="utf-8"?>
<!-- Generator: Adobe Illustrator 15.0.0, SVG Export Plug-In . SVG Version: 6.00 Build 0)  -->
<!DOCTYPE svg PUBLIC "-//W3C//DTD SVG 1.1//EN" "http://www.w3.org/Graphics/SVG/1.1/DTD/svg11.dtd">
<svg version="1.1" id="Layer_1" xmlns="http://www.w3.org/2000/svg" xmlns:xlink="http://www.w3.org/1999/xlink" x="0px" y="0px"
	 width="24px" height="24px" viewBox="0 0 24 24" enable-background="new 0 0 24 24" xml:space="preserve">
<path fill-rule="evenodd" clip-rule="evenodd" fill="#231F20" d="M1.987,9.878h20.024c0.682,0,1.238,0.557,1.238,1.237l0,0
	c0,0.681-0.557,1.238-1.238,1.238h-0.447l-1.783,8.711c-0.206,0.497-0.833,0.862-1.376,0.862H5.595
	c-0.544,0-1.172-0.365-1.377-0.863l-0.068-0.335v-0.002l0,0l-1.715-8.373H1.987c-0.681,0-1.237-0.558-1.237-1.238l0,0
	C0.75,10.435,1.307,9.878,1.987,9.878L1.987,9.878z M5.733,7.499C6.347,4.592,8.901,3.654,12,3.643
	c3.102,0.012,5.658,0.953,6.269,3.864c0.126,0.525,0.258,0.977,0.931,0.967c0.555-0.006,0.75-0.493,0.666-0.971
	C19.23,3.72,15.969,2.085,12,2.073C8.041,2.085,4.785,3.706,4.14,7.475C4.078,7.819,4.179,8.432,4.818,8.474
	C5.461,8.463,5.636,8.18,5.733,7.499L5.733,7.499z M12,12.921L12,12.921c0.624,0,1.134,0.51,1.134,1.133v5.722
	c0,0.624-0.51,1.135-1.134,1.135l0,0c-0.624,0-1.135-0.511-1.135-1.135v-5.722C10.865,13.431,11.376,12.921,12,12.921L12,12.921z
	 M17.154,12.962L17.154,12.962c0.62,0.063,1.076,0.623,1.013,1.244l-0.584,5.69c-0.063,0.621-0.624,1.077-1.244,1.014l0,0
	c-0.621-0.063-1.076-0.624-1.013-1.245l0.584-5.69C15.974,13.354,16.533,12.898,17.154,12.962L17.154,12.962z M6.846,12.962
	L6.846,12.962c-0.621,0.063-1.077,0.623-1.013,1.244l0.584,5.69c0.063,0.621,0.623,1.077,1.243,1.014l0,0
	c0.621-0.063,1.077-0.624,1.013-1.245l-0.584-5.69C8.025,13.354,7.466,12.898,6.846,12.962L6.846,12.962z"/>
</svg>
